^C:\USERS\FRANC_000\DESKTOP\SCHOOL\TERM 3\PROGRAMMING FUNDAMENTALS\WEEK 10\VGP122_L09_LAGO_FRANCO\VGP122_L09_LAGO_FRANCO\COLLISIONDETECTION.CPP
/c /I"C:\Users\franc_000\Desktop\School\Term 3\Programming Fundamentals\Week 9\SDL2-2.0.0\include" /ZI /nologo /W3 /WX- /sdl /Od /Oy- /D _MBCS /Gm /EHsc /RTC1 /MDd /GS /fp:precise /Zc:wchar_t /Zc:forScope /Fo"DEBUG\\" /Fd"DEBUG\VC120.PDB" /Gd /TP /analyze- C:\USERS\FRANC_000\DESKTOP\SCHOOL\TERM 3\PROGRAMMING FUNDAMENTALS\WEEK 10\VGP122_L09_LAGO_FRANCO\VGP122_L09_LAGO_FRANCO\COLLISIONDETECTION.CPP
^C:\USERS\FRANC_000\DESKTOP\SCHOOL\TERM 3\PROGRAMMING FUNDAMENTALS\WEEK 10\VGP122_L09_LAGO_FRANCO\VGP122_L09_LAGO_FRANCO\JUMP.CPP
/c /I"C:\Users\franc_000\Desktop\School\Term 3\Programming Fundamentals\Week 9\SDL2-2.0.0\include" /ZI /nologo /W3 /WX- /sdl /Od /Oy- /D _MBCS /Gm /EHsc /RTC1 /MDd /GS /fp:precise /Zc:wchar_t /Zc:forScope /Fo"DEBUG\\" /Fd"DEBUG\VC120.PDB" /Gd /TP /analyze- C:\USERS\FRANC_000\DESKTOP\SCHOOL\TERM 3\PROGRAMMING FUNDAMENTALS\WEEK 10\VGP122_L09_LAGO_FRANCO\VGP122_L09_LAGO_FRANCO\JUMP.CPP
^C:\USERS\FRANC_000\DESKTOP\SCHOOL\TERM 3\PROGRAMMING FUNDAMENTALS\WEEK 10\VGP122_L09_LAGO_FRANCO\VGP122_L09_LAGO_FRANCO\LUIGI.CPP
/c /I"C:\Users\franc_000\Desktop\School\Term 3\Programming Fundamentals\Week 9\SDL2-2.0.0\include" /ZI /nologo /W3 /WX- /sdl /Od /Oy- /D _MBCS /Gm /EHsc /RTC1 /MDd /GS /fp:precise /Zc:wchar_t /Zc:forScope /Fo"DEBUG\\" /Fd"DEBUG\VC120.PDB" /Gd /TP /analyze- C:\USERS\FRANC_000\DESKTOP\SCHOOL\TERM 3\PROGRAMMING FUNDAMENTALS\WEEK 10\VGP122_L09_LAGO_FRANCO\VGP122_L09_LAGO_FRANCO\LUIGI.CPP
^C:\USERS\FRANC_000\DESKTOP\SCHOOL\TERM 3\PROGRAMMING FUNDAMENTALS\WEEK 10\VGP122_L09_LAGO_FRANCO\VGP122_L09_LAGO_FRANCO\MAIN.CPP
/c /I"C:\Users\franc_000\Desktop\School\Term 3\Programming Fundamentals\Week 9\SDL2-2.0.0\include" /ZI /nologo /W3 /WX- /sdl /Od /Oy- /D _MBCS /Gm /EHsc /RTC1 /MDd /GS /fp:precise /Zc:wchar_t /Zc:forScope /Fo"DEBUG\\" /Fd"DEBUG\VC120.PDB" /Gd /TP /analyze- C:\USERS\FRANC_000\DESKTOP\SCHOOL\TERM 3\PROGRAMMING FUNDAMENTALS\WEEK 10\VGP122_L09_LAGO_FRANCO\VGP122_L09_LAGO_FRANCO\MAIN.CPP
^C:\USERS\FRANC_000\DESKTOP\SCHOOL\TERM 3\PROGRAMMING FUNDAMENTALS\WEEK 10\VGP122_L09_LAGO_FRANCO\VGP122_L09_LAGO_FRANCO\SPRITE.CPP
/c /I"C:\Users\franc_000\Desktop\School\Term 3\Programming Fundamentals\Week 9\SDL2-2.0.0\include" /ZI /nologo /W3 /WX- /sdl /Od /Oy- /D _MBCS /Gm /EHsc /RTC1 /MDd /GS /fp:precise /Zc:wchar_t /Zc:forScope /Fo"DEBUG\\" /Fd"DEBUG\VC120.PDB" /Gd /TP /analyze- C:\USERS\FRANC_000\DESKTOP\SCHOOL\TERM 3\PROGRAMMING FUNDAMENTALS\WEEK 10\VGP122_L09_LAGO_FRANCO\VGP122_L09_LAGO_FRANCO\SPRITE.CPP
^C:\USERS\FRANC_000\DESKTOP\SCHOOL\TERM 3\PROGRAMMING FUNDAMENTALS\WEEK 10\VGP122_L09_LAGO_FRANCO\VGP122_L09_LAGO_FRANCO\SOUND.CPP
/c /I"C:\Users\franc_000\Desktop\School\Term 3\Programming Fundamentals\Week 9\SDL2-2.0.0\include" /ZI /nologo /W3 /WX- /sdl /Od /Oy- /D _MBCS /Gm /EHsc /RTC1 /MDd /GS /fp:precise /Zc:wchar_t /Zc:forScope /Fo"DEBUG\\" /Fd"DEBUG\VC120.PDB" /Gd /TP /analyze- C:\USERS\FRANC_000\DESKTOP\SCHOOL\TERM 3\PROGRAMMING FUNDAMENTALS\WEEK 10\VGP122_L09_LAGO_FRANCO\VGP122_L09_LAGO_FRANCO\SOUND.CPP
^C:\USERS\FRANC_000\DESKTOP\SCHOOL\TERM 3\PROGRAMMING FUNDAMENTALS\WEEK 10\VGP122_L09_LAGO_FRANCO\VGP122_L09_LAGO_FRANCO\MENU.CPP
/c /I"C:\Users\franc_000\Desktop\School\Term 3\Programming Fundamentals\Week 9\SDL2-2.0.0\include" /ZI /nologo /W3 /WX- /sdl /Od /Oy- /D _MBCS /Gm /EHsc /RTC1 /MDd /GS /fp:precise /Zc:wchar_t /Zc:forScope /Fo"DEBUG\\" /Fd"DEBUG\VC120.PDB" /Gd /TP /analyze- C:\USERS\FRANC_000\DESKTOP\SCHOOL\TERM 3\PROGRAMMING FUNDAMENTALS\WEEK 10\VGP122_L09_LAGO_FRANCO\VGP122_L09_LAGO_FRANCO\MENU.CPP
