^C:\USERS\FRANC_000\DESKTOP\SCHOOL\TERM 3\PROGRAMMING FUNDAMENTALS\WEEK 10\VGP122_L09_LAGO_FRANCO\VGP122_L09_LAGO_FRANCO\DEBUG\COLLISIONDETECTION.OBJ|C:\USERS\FRANC_000\DESKTOP\SCHOOL\TERM 3\PROGRAMMING FUNDAMENTALS\WEEK 10\VGP122_L09_LAGO_FRANCO\VGP122_L09_LAGO_FRANCO\DEBUG\JUMP.OBJ|C:\USERS\FRANC_000\DESKTOP\SCHOOL\TERM 3\PROGRAMMING FUNDAMENTALS\WEEK 10\VGP122_L09_LAGO_FRANCO\VGP122_L09_LAGO_FRANCO\DEBUG\LUIGI.OBJ|C:\USERS\FRANC_000\DESKTOP\SCHOOL\TERM 3\PROGRAMMING FUNDAMENTALS\WEEK 10\VGP122_L09_LAGO_FRANCO\VGP122_L09_LAGO_FRANCO\DEBUG\MAIN.OBJ|C:\USERS\FRANC_000\DESKTOP\SCHOOL\TERM 3\PROGRAMMING FUNDAMENTALS\WEEK 10\VGP122_L09_LAGO_FRANCO\VGP122_L09_LAGO_FRANCO\DEBUG\MENU.OBJ|C:\USERS\FRANC_000\DESKTOP\SCHOOL\TERM 3\PROGRAMMING FUNDAMENTALS\WEEK 10\VGP122_L09_LAGO_FRANCO\VGP122_L09_LAGO_FRANCO\DEBUG\SOUND.OBJ|C:\USERS\FRANC_000\DESKTOP\SCHOOL\TERM 3\PROGRAMMING FUNDAMENTALS\WEEK 10\VGP122_L09_LAGO_FRANCO\VGP122_L09_LAGO_FRANCO\DEBUG\SPRITE.OBJ
C:\USERS\FRANC_000\DESKTOP\SCHOOL\TERM 3\PROGRAMMING FUNDAMENTALS\WEEK 9\SDL2-2.0.0\LIB\X86\SDL2.LIB
C:\USERS\FRANC_000\DESKTOP\SCHOOL\TERM 3\PROGRAMMING FUNDAMENTALS\WEEK 9\SDL2-2.0.0\LIB\X86\SDL2MAIN.LIB
C:\USERS\FRANC_000\DESKTOP\SCHOOL\TERM 3\PROGRAMMING FUNDAMENTALS\WEEK 9\SDL2-2.0.0\LIB\X86\SDL2_MIXER.LIB
C:\USERS\FRANC_000\DESKTOP\SCHOOL\TERM 3\PROGRAMMING FUNDAMENTALS\WEEK 9\SDL2-2.0.0\LIB\X86\SDL2_IMAGE.LIB
C:\USERS\FRANC_000\DESKTOP\SCHOOL\TERM 3\PROGRAMMING FUNDAMENTALS\WEEK 9\SDL2-2.0.0\LIB\X86\SDL2_TTF.LIB
C:\PROGRAM FILES (X86)\WINDOWS KITS\8.1\LIB\WINV6.3\UM\X86\KERNEL32.LIB
C:\PROGRAM FILES (X86)\WINDOWS KITS\8.1\LIB\WINV6.3\UM\X86\USER32.LIB
C:\PROGRAM FILES (X86)\WINDOWS KITS\8.1\LIB\WINV6.3\UM\X86\GDI32.LIB
C:\PROGRAM FILES (X86)\WINDOWS KITS\8.1\LIB\WINV6.3\UM\X86\WINSPOOL.LIB
C:\PROGRAM FILES (X86)\WINDOWS KITS\8.1\LIB\WINV6.3\UM\X86\COMDLG32.LIB
C:\PROGRAM FILES (X86)\WINDOWS KITS\8.1\LIB\WINV6.3\UM\X86\ADVAPI32.LIB
C:\PROGRAM FILES (X86)\WINDOWS KITS\8.1\LIB\WINV6.3\UM\X86\SHELL32.LIB
C:\PROGRAM FILES (X86)\WINDOWS KITS\8.1\LIB\WINV6.3\UM\X86\OLE32.LIB
C:\PROGRAM FILES (X86)\WINDOWS KITS\8.1\LIB\WINV6.3\UM\X86\OLEAUT32.LIB
C:\PROGRAM FILES (X86)\WINDOWS KITS\8.1\LIB\WINV6.3\UM\X86\UUID.LIB
C:\PROGRAM FILES (X86)\WINDOWS KITS\8.1\LIB\WINV6.3\UM\X86\ODBC32.LIB
C:\PROGRAM FILES (X86)\WINDOWS KITS\8.1\LIB\WINV6.3\UM\X86\ODBCCP32.LIB
C:\USERS\FRANC_000\DESKTOP\SCHOOL\TERM 3\PROGRAMMING FUNDAMENTALS\WEEK 10\VGP122_L09_LAGO_FRANCO\VGP122_L09_LAGO_FRANCO\DEBUG\COLLISIONDETECTION.OBJ
C:\USERS\FRANC_000\DESKTOP\SCHOOL\TERM 3\PROGRAMMING FUNDAMENTALS\WEEK 10\VGP122_L09_LAGO_FRANCO\VGP122_L09_LAGO_FRANCO\DEBUG\JUMP.OBJ
C:\USERS\FRANC_000\DESKTOP\SCHOOL\TERM 3\PROGRAMMING FUNDAMENTALS\WEEK 10\VGP122_L09_LAGO_FRANCO\VGP122_L09_LAGO_FRANCO\DEBUG\LUIGI.OBJ
C:\USERS\FRANC_000\DESKTOP\SCHOOL\TERM 3\PROGRAMMING FUNDAMENTALS\WEEK 10\VGP122_L09_LAGO_FRANCO\VGP122_L09_LAGO_FRANCO\DEBUG\MAIN.OBJ
C:\USERS\FRANC_000\DESKTOP\SCHOOL\TERM 3\PROGRAMMING FUNDAMENTALS\WEEK 10\VGP122_L09_LAGO_FRANCO\VGP122_L09_LAGO_FRANCO\DEBUG\MENU.OBJ
C:\USERS\FRANC_000\DESKTOP\SCHOOL\TERM 3\PROGRAMMING FUNDAMENTALS\WEEK 10\VGP122_L09_LAGO_FRANCO\VGP122_L09_LAGO_FRANCO\DEBUG\SOUND.OBJ
C:\USERS\FRANC_000\DESKTOP\SCHOOL\TERM 3\PROGRAMMING FUNDAMENTALS\WEEK 10\VGP122_L09_LAGO_FRANCO\VGP122_L09_LAGO_FRANCO\DEBUG\SPRITE.OBJ
C:\WINDOWS\SYSTEM32\TZRES.DLL
C:\WINDOWS\GLOBALIZATION\SORTING\SORTDEFAULT.NLS
C:\PROGRAM FILES (X86)\MICROSOFT VISUAL STUDIO 12.0\VC\LIB\MSVCPRTD.LIB
C:\PROGRAM FILES (X86)\MICROSOFT VISUAL STUDIO 12.0\VC\LIB\MSVCRTD.LIB
C:\PROGRAM FILES (X86)\MICROSOFT VISUAL STUDIO 12.0\VC\LIB\OLDNAMES.LIB
C:\PROGRAM FILES (X86)\MICROSOFT VISUAL STUDIO 12.0\VC\LIB\MSVCRT.LIB
C:\PROGRAM FILES (X86)\MICROSOFT VISUAL STUDIO 12.0\VC\BIN\LINK.EXE
C:\PROGRAM FILES (X86)\MICROSOFT VISUAL STUDIO 12.0\VC\BIN\1033\LINKUI.DLL
C:\PROGRAM FILES (X86)\WINDOWS KITS\8.1\BIN\X86\RC.EXE
C:\PROGRAM FILES (X86)\MICROSOFT VISUAL STUDIO 12.0\VC\BIN\CVTRES.EXE
